{
  "type": "service_account",
  "project_id": "trevo-app-ae739",
  "private_key_id": "33b17ac8b05f39a51e1c271df6984e568f4957d3",
  "private_key": "-----BEGIN PRIVATE KEY-----\nMIIEvQIBADANBgkqhkiG9w0BAQEFAASCBKcwggSjAgEAAoIBAQDrAzvRsNDql2CH\nkdnEEbEgvjdK2tpKnFmIfSFtWgmN+onTapKdjZt/zx1Sf0CHt0gHi2EtGe7ubkJ1\ngC1x3dEPxJQ50cqG+1gChk2JNebqTZRWp5sr3EEWMR/M55imJXVwPY5SP4QZVz7G\n/MZG8jQZAxYhRYoNLFyTDV1RzBoJi+urX58fscu4RkOmJbA8e5odwnxJb+FW9Fnh\npYj2J3qFLaLK3H8oboxab4O6rZfOH794P/j1m4DbhMTGTsRumqotxczzl9CI+MZf\nHW8FgX7yPuAv1EyDkNFNNy7oiu+8Vgp5Ix1y+A3luj5nxqiVFbBUeElha8Uu96Ig\n+gnzyeehAgMBAAECggEADctBdkFb7H5jcBGjfS/8puCt+3rKV+7Ct+bVphwkIMKV\nLGTo+M5tqMbOAHWaTVz4oVi7pMYM5s8Z9NjyfJMkc48k6W/i5KFZZ8Hc8zIdZ6CT\nawf+F55J7l+Gb6R4VT2FnceUfvIIyDlSufiZkA3PTliGsqqTkR+1dKbS1LuXcPqP\nVRdzkDbDLgaxoqkAeVDQavJMdksaiQxVyoi0yr/q3ZYvcG3tFysd22TMvdO/TlQy\n9SNvJ+J6N7LEE9DQd80CTYUqFABMLayG1eAqsTt3aqIGY9/E9mXObDi5oaifdEVA\nxGFCERrDrx171e4ZUxeFSq1/jiKvi3uS/nSa39JNQQKBgQD9GR1f7Y3eJu//E5mP\nHuYjhtJVe1Icxy+JWRNgiAdKVTWLJ9Llw0axPFyujxzZnbwtjVm0vIHWgLMqKL0a\ntEyHRopelISdYAzkWGM5ZccnbvWR/u5tb7F0QetAmYyAjTFvVr5/EmamXph/htWQ\nK0Lk/oSi/qOZ/QK8a/9roupbVQKBgQDttQj4JDtOPHh0C1FEXdS0XW9CXL33wGHG\nZ3vuKugAFOx9EHIHFlhqFGbxvtUruiNq9nQLkRrx/xcZKDPDPhEfzoK2Qf1FOCMK\nxe26Aw5Un1HBgjZ5xpPiXcm46LXGcJUNfl1yHme8O7fdtWv0OBNeImN8FW73laob\nQaZ/fx1THQKBgQC776I4URU/GHqtVch41eDeEIauotveMqnBuzsAOwHu2EbiBbg8\nlDwx7ziDBhHOJapNyOALrM5ckUR40bdZ1Pfemyq0AGRY17G6/Ubwn/q59VK0DjDN\nYlrKkQg29820xyMmIatigC9o6mUijOSYIQeTMssanSqudYlKkIchTd/n4QKBgGxy\nGixzAyd3SRDQFPxWvnKm6dphyz0bZMAKeCy5IGzhHt8TwKHhHOcQdcK2aDRx0DS9\nSUX5pkxfL1+Hys25JEDZiyKxSmXo7Xu9vu4M9N3AbaEV0dqOsOsmFKCqcjudIzMr\nwmAM5RCoQgMBAMZDSvq4P6Ddemmzuw6CTf5+tJc1AoGAezpSFeJOhRum+dgkSDqF\nNwM2XDvShoZXPbYrLRHlvsNcAOvtyfiuMaYKiXtJWNOcLrNcTsBhxTmvjnMSXGuk\nIKOLIBTyCBoZP/CS2OxGanDZLkAIGaUD51Yhx6TxHolefOxjgWNvkNz3KvsIElhQ\nozoPw18FS4Hdf2yATaM0d6o=\n-----END PRIVATE KEY-----\n",
  "client_email": "jorge-fernando@trevo-app-ae739.iam.gserviceaccount.com",
  "client_id": "111791069840473732133",
  "auth_uri": "https://accounts.google.com/o/oauth2/auth",
  "token_uri": "https://oauth2.googleapis.com/token",
  "auth_provider_x509_cert_url": "https://www.googleapis.com/oauth2/v1/certs",
  "client_x509_cert_url": "https://www.googleapis.com/robot/v1/metadata/x509/jorge-fernando%40trevo-app-ae739.iam.gserviceaccount.com"
}
